<?xml version="1.0" encoding="UTF-8" standalone="no"?>
<!-- Created with Inkscape (http://www.inkscape.org/) -->

<svg
   xmlns:dc="http://purl.org/dc/elements/1.1/"
   xmlns:cc="http://creativecommons.org/ns#"
   xmlns:rdf="http://www.w3.org/1999/02/22-rdf-syntax-ns#"
   xmlns:svg="http://www.w3.org/2000/svg"
   xmlns="http://www.w3.org/2000/svg"
   xmlns:sodipodi="http://sodipodi.sourceforge.net/DTD/sodipodi-0.dtd"
   xmlns:inkscape="http://www.inkscape.org/namespaces/inkscape"
   width="16px"
   height="16px"
   id="svg4710"
   version="1.1"
   inkscape:version="0.48.3.1 r9886"
   sodipodi:docname="Airfield.svg">
  <defs
     id="defs4712" />
  <sodipodi:namedview
     id="base"
     pagecolor="#ffffff"
     bordercolor="#666666"
     borderopacity="1.0"
     inkscape:pageopacity="0.0"
     inkscape:pageshadow="2"
     inkscape:zoom="22.197802"
     inkscape:cx="1.8282178"
     inkscape:cy="8"
     inkscape:current-layer="layer1"
     showgrid="true"
     inkscape:grid-bbox="true"
     inkscape:document-units="px"
     inkscape:window-width="1317"
     inkscape:window-height="744"
     inkscape:window-x="49"
     inkscape:window-y="24"
     inkscape:window-maximized="1" />
  <metadata
     id="metadata4715">
    <rdf:RDF>
      <cc:Work
         rdf:about="">
        <dc:format>image/svg+xml</dc:format>
        <dc:type
           rdf:resource="http://purl.org/dc/dcmitype/StillImage" />
        <dc:title></dc:title>
      </cc:Work>
    </rdf:RDF>
  </metadata>
  <g
     id="layer1"
     inkscape:label="Layer 1"
     inkscape:groupmode="layer">
    <path
       style="fill:#000000;fill-opacity:1;fill-rule:evenodd;stroke:none"
       d="m 1.58884e-4,5.4108433 c -0.012400004,1.04013 0.697579996,1.57876 1.602180016,1.74728 1.80004,0.24763 4.07861,0.0468 5.84035,0.2293 0.0855,2.19186 0.13892,3.3488697 0.23223,5.1650497 -2.24523,0.0104 -2.72194,0.16411 -2.75822,0.83822 -0.0358,0.66403 0.52193,0.7768 1.07424,0.79553 0.55231,0.0187 1.16178,0.0121 1.76197,0.0244 0,0 0.003,0.32949 0.10831,0.39454 0.098,0.0605 0.30682,0.0707 0.41674,0.0202 0.1015,-0.0466 0.13717,-0.4249 0.13717,-0.42489 0,0 1.13151,-0.004 1.6898601,0.0116 0.60973,0.0186 1.18678,-0.0221 1.20266,-0.8247 0.0159,-0.80233 -1.24487,-0.82743 -2.7901701,-0.83493 0.15147,-2.4193 0.17586,-2.5537697 0.30265,-5.1650497 1.7544001,-0.17011 3.7121201,0.0183 5.2342501,-0.2293 1.21754,-0.19807 1.9791,-0.7075 1.94449,-1.74374 -0.0346,-1.03623 -0.62347,-1.40465 -1.95367,-1.4064 -2.3514,-0.003 -5.0021201,-0.2128 -5.0021201,-0.2128 -0.0228,-1.02497 0.2343,-2.4488201 -0.78069,-2.4528101 -1.01499,-0.004 -0.83059,1.4204401 -0.86352,2.4551101 -1.25914,2.5e-4 -4.01035,0.22734 -5.82298,0.2172 -0.84805002,-0.005 -1.56319002,0.34584 -1.575730016,1.39616 z"
       id="path3241"
       sodipodi:nodetypes="cccczzczzcczccszsczcsz"
       inkscape:connector-curvature="0" />
    <path
       style="fill:#ffff00;fill-opacity:1;fill-rule:nonzero;stroke:#000000;stroke-width:0.04504951;stroke-miterlimit:4;stroke-opacity:1;stroke-dasharray:none"
       d="m 7.8828713,14.550198 c -0.050055,-0.05006 -0.090099,-0.150165 -0.090099,-0.225247 l 0,-0.135149 -0.6870049,-0.0023 c -0.3778528,-0.0013 -0.9026056,-0.01893 -1.1661173,-0.03926 -0.7464509,-0.05759 -0.9849966,-0.238697 -0.9849966,-0.7478 0,-0.237793 0.012983,-0.270366 0.1705687,-0.427952 0.259186,-0.259186 0.6222746,-0.335176 1.8501435,-0.387213 L 7.7121666,12.554057 7.685259,12.18938 C 7.6704593,11.988808 7.6154683,10.831361 7.5630563,9.6172772 7.5106444,8.4031931 7.4516863,7.3926151 7.4320379,7.3715481 7.4123901,7.3504816 6.4364272,7.3154782 5.2632313,7.2937625 3.0880703,7.2535013 1.9225181,7.1962655 1.5125528,7.1095808 0.91927934,6.9841364 0.41201578,6.6269465 0.19383781,6.1810068 0.03130227,5.848796 -0.00591238,5.264098 0.11274166,4.9068641 0.213898,4.6023109 0.47604302,4.3179558 0.77734574,4.185952 1.0398697,4.0709375 0.80340169,4.0867717 4.7744555,3.9182992 5.976151,3.8673171 7.0635253,3.826237 7.1908429,3.8270101 l 0.2314864,0.00141 0.019031,-0.7996287 C 7.4629734,2.1206682 7.5349562,1.7976661 7.7660787,1.5717008 8.032692,1.3110371 8.4521772,1.30141 8.7156619,1.5499082 8.9666863,1.7866546 9.0281622,2.0860378 9.0193383,3.0287871 l -0.00748,0.7996287 0.10061,0 c 0.055335,0 0.597001,0.030881 1.2037007,0.068624 0.606701,0.037743 1.812622,0.087519 2.679825,0.1106143 1.634353,0.043525 1.913413,0.071605 2.267465,0.2281636 0.397884,0.1759397 0.60142,0.457442 0.678985,0.9390798 0.149002,0.9252186 -0.384267,1.5971532 -1.482341,1.8677908 -0.681898,0.1680644 -1.166336,0.201529 -3.666095,0.2532485 C 9.7315791,7.3179188 8.8469289,7.3525418 8.828119,7.3728778 8.809308,7.3932138 8.770308,7.8761142 8.741451,8.4459904 8.712595,9.0158666 8.649516,10.09762 8.6012763,10.849887 c -0.048239,0.752267 -0.087708,1.442602 -0.087708,1.534077 l 0,0.166319 0.9122525,0.05203 c 1.1444062,0.06528 1.5189542,0.160736 1.7416902,0.443899 0.131024,0.16657 0.129365,0.550465 -0.0034,0.786688 -0.17615,0.313416 -0.263763,0.332516 -1.5978141,0.348326 l -1.1772215,0.01395 -0.028158,0.176087 c -0.04246,0.265541 -0.2963875,0.360585 -0.4780415,0.178931 z"
       id="path3051"
       inkscape:connector-curvature="0" />
  </g>
</svg>
