<?xml version="1.0" encoding="UTF-8" standalone="no"?>
<!-- Created with Inkscape (http://www.inkscape.org/) -->

<svg
   xmlns:dc="http://purl.org/dc/elements/1.1/"
   xmlns:cc="http://creativecommons.org/ns#"
   xmlns:rdf="http://www.w3.org/1999/02/22-rdf-syntax-ns#"
   xmlns:svg="http://www.w3.org/2000/svg"
   xmlns="http://www.w3.org/2000/svg"
   xmlns:sodipodi="http://sodipodi.sourceforge.net/DTD/sodipodi-0.dtd"
   xmlns:inkscape="http://www.inkscape.org/namespaces/inkscape"
   width="16px"
   height="16px"
   id="svg4556"
   version="1.1"
   inkscape:version="0.48.3.1 r9886"
   sodipodi:docname="Nuevo documento 86">
  <defs
     id="defs4558" />
  <sodipodi:namedview
     id="base"
     pagecolor="#ffffff"
     bordercolor="#666666"
     borderopacity="1.0"
     inkscape:pageopacity="0.0"
     inkscape:pageshadow="2"
     inkscape:zoom="22.197802"
     inkscape:cx="1.8282178"
     inkscape:cy="8"
     inkscape:current-layer="layer1"
     showgrid="true"
     inkscape:grid-bbox="true"
     inkscape:document-units="px"
     inkscape:window-width="1317"
     inkscape:window-height="744"
     inkscape:window-x="49"
     inkscape:window-y="24"
     inkscape:window-maximized="1" />
  <metadata
     id="metadata4561">
    <rdf:RDF>
      <cc:Work
         rdf:about="">
        <dc:format>image/svg+xml</dc:format>
        <dc:type
           rdf:resource="http://purl.org/dc/dcmitype/StillImage" />
        <dc:title></dc:title>
      </cc:Work>
    </rdf:RDF>
  </metadata>
  <g
     id="layer1"
     inkscape:label="Layer 1"
     inkscape:groupmode="layer">
    <g
       id="text4122-5"
       style="font-size:120.72502136px;font-style:normal;font-variant:normal;font-weight:normal;font-stretch:normal;line-height:125%;letter-spacing:0px;word-spacing:0px;fill:#ffffff;fill-opacity:1;stroke:#000000;stroke-width:1;stroke-miterlimit:4;stroke-opacity:1;font-family:Istanbul;-inkscape-font-specification:Istanbul"
       transform="matrix(0.25136241,0,0,0.24717689,-17.738554,-209.33916)"
       inkscape:transform-center-x="37.84404"
       inkscape:transform-center-y="7.9989698">
      <path
         inkscape:connector-curvature="0"
         id="path4269-8"
         style="fill:#ffffff;stroke:#000000;stroke-opacity:1;-inkscape-font-specification:Istanbul"
         d="m 78.433927,901.71555 -7.36847,-12.67377 19.216971,-9.78533 -19.216971,-9.54954 7.36847,-12.61482 17.861173,11.78955 -1.296851,-21.45699 14.736941,0 -1.3558,21.45699 17.97907,-11.78955 7.36847,12.61482 -19.27592,9.54954 19.27592,9.66743 -7.36847,12.55587 -17.97907,-11.7306 1.3558,21.39804 -14.736941,0 1.473694,-21.39804 z" />
    </g>
  </g>
</svg>
