<?xml version="1.0" encoding="UTF-8" standalone="no"?>
<!-- Created with Inkscape (http://www.inkscape.org/) -->

<svg
   xmlns:dc="http://purl.org/dc/elements/1.1/"
   xmlns:cc="http://creativecommons.org/ns#"
   xmlns:rdf="http://www.w3.org/1999/02/22-rdf-syntax-ns#"
   xmlns:svg="http://www.w3.org/2000/svg"
   xmlns="http://www.w3.org/2000/svg"
   xmlns:sodipodi="http://sodipodi.sourceforge.net/DTD/sodipodi-0.dtd"
   xmlns:inkscape="http://www.inkscape.org/namespaces/inkscape"
   width="16px"
   height="16px"
   id="svg5265"
   version="1.1"
   inkscape:version="0.48.3.1 r9886"
   sodipodi:docname="Circle 7.svg">
  <defs
     id="defs5267" />
  <sodipodi:namedview
     id="base"
     pagecolor="#ffffff"
     bordercolor="#666666"
     borderopacity="1.0"
     inkscape:pageopacity="0.0"
     inkscape:pageshadow="2"
     inkscape:zoom="22.197802"
     inkscape:cx="8"
     inkscape:cy="8"
     inkscape:current-layer="layer1"
     showgrid="true"
     inkscape:grid-bbox="true"
     inkscape:document-units="px"
     inkscape:window-width="1317"
     inkscape:window-height="744"
     inkscape:window-x="49"
     inkscape:window-y="24"
     inkscape:window-maximized="1" />
  <metadata
     id="metadata5270">
    <rdf:RDF>
      <cc:Work
         rdf:about="">
        <dc:format>image/svg+xml</dc:format>
        <dc:type
           rdf:resource="http://purl.org/dc/dcmitype/StillImage" />
        <dc:title></dc:title>
      </cc:Work>
    </rdf:RDF>
  </metadata>
  <g
     id="layer1"
     inkscape:label="Layer 1"
     inkscape:groupmode="layer">
    <g
       transform="matrix(0,1.0348934,-1.0346498,0,16.04488,-0.04489827)"
       style="fill-rule:evenodd"
       id="Layer_x0020_1">
      <metadata
         id="CorelCorpID_0Corel-Layer" />
      <path
         inkscape:connector-curvature="0"
         class="fil0 str0"
         d="m 0.957784,8.229 c 0.260157,3.58673 3.21015,6.37515 6.81583,6.37515 3.60568,0 6.55728,-2.78392 6.81588,-6.37515 l -13.6317,0 z m 13.6317,-0.903393 c -0.222639,-3.57506 -3.21969,-6.37884 -6.81588,-6.37884 -3.59618,0 -6.55446,2.7752 -6.81583,6.37884 l 13.6317,0 z m -14.5461,0.44801 c 0,-4.27455 3.45751,-7.73024 7.73024,-7.73024 4.27273,0 7.73029,3.46949 7.73029,7.73024 0,4.26076 -3.44489,7.73393 -7.73029,7.73393 -4.28539,0 -7.73024,-3.45938 -7.73024,-7.73393 z"
         id="path8955" />
    </g>
    <path
       style="fill:#ffff00;fill-opacity:1;fill-rule:nonzero;stroke:#000000;stroke-width:0.04504951;stroke-miterlimit:4;stroke-opacity:1;stroke-dasharray:none"
       d="m 7.3873267,15.016303 c -0.061943,-0.0094 -0.313722,-0.04906 -0.559509,-0.08803 C 4.638484,14.581152 2.6605197,13.098287 1.6727674,11.063575 0.73543471,9.1327243 0.73618766,6.8277078 1.6747703,4.9321287 2.4686831,3.3287276 3.8191562,2.0917799 5.5050318,1.4238522 5.9226236,1.2584064 6.7681352,1.0503989 7.1798891,1.0118144 l 0.3425861,-0.032103 0,7.0330155 c 0,3.8681591 -0.00507,7.0302551 -0.011262,7.0268811 -0.00619,-0.0034 -0.061943,-0.01386 -0.1238862,-0.0233 l 0,0 z"
       id="path4010"
       inkscape:connector-curvature="0" />
    <path
       style="fill:#ffff00;fill-opacity:1;fill-rule:nonzero;stroke:#000000;stroke-width:0.04504951;stroke-miterlimit:4;stroke-opacity:1;stroke-dasharray:none"
       d="m 8.4685149,8.0049248 0,-7.02521336 0.3400131,0.0318619 c 0.4205909,0.039413 1.244262,0.24038 1.66469,0.4061675 1.0814,0.426429 1.923898,0.9994621 2.701945,1.8377532 1.72322,1.8566509 2.307582,4.5583961 1.502663,6.947427 -0.614021,1.822436 -1.950204,3.337162 -3.655886,4.144393 -0.783294,0.370702 -1.4662284,0.559734 -2.4070143,0.666248 l -0.1464108,0.01658 0,-7.0252132 z"
       id="path4012"
       inkscape:connector-curvature="0" />
  </g>
</svg>
