<?xml version="1.0" encoding="UTF-8" standalone="no"?>
<!-- Created with Inkscape (http://www.inkscape.org/) -->

<svg
   xmlns:dc="http://purl.org/dc/elements/1.1/"
   xmlns:cc="http://creativecommons.org/ns#"
   xmlns:rdf="http://www.w3.org/1999/02/22-rdf-syntax-ns#"
   xmlns:svg="http://www.w3.org/2000/svg"
   xmlns="http://www.w3.org/2000/svg"
   xmlns:sodipodi="http://sodipodi.sourceforge.net/DTD/sodipodi-0.dtd"
   xmlns:inkscape="http://www.inkscape.org/namespaces/inkscape"
   width="16px"
   height="16px"
   id="svg5207"
   version="1.1"
   inkscape:version="0.48.3.1 r9886"
   sodipodi:docname="Circle 6.svg">
  <defs
     id="defs5209" />
  <sodipodi:namedview
     id="base"
     pagecolor="#ffffff"
     bordercolor="#666666"
     borderopacity="1.0"
     inkscape:pageopacity="0.0"
     inkscape:pageshadow="2"
     inkscape:zoom="22.197802"
     inkscape:cx="8"
     inkscape:cy="8"
     inkscape:current-layer="layer1"
     showgrid="true"
     inkscape:grid-bbox="true"
     inkscape:document-units="px"
     inkscape:window-width="1317"
     inkscape:window-height="744"
     inkscape:window-x="49"
     inkscape:window-y="24"
     inkscape:window-maximized="1" />
  <metadata
     id="metadata5212">
    <rdf:RDF>
      <cc:Work
         rdf:about="">
        <dc:format>image/svg+xml</dc:format>
        <dc:type
           rdf:resource="http://purl.org/dc/dcmitype/StillImage" />
        <dc:title></dc:title>
      </cc:Work>
    </rdf:RDF>
  </metadata>
  <g
     id="layer1"
     inkscape:label="Layer 1"
     inkscape:groupmode="layer">
    <g
       transform="matrix(2.2421462,0,0,2.2421462,-0.04488732,-0.04488789)"
       style="fill-rule:evenodd"
       id="Layer_x0020_1-6">
      <metadata
         id="CorelCorpID_0Corel-Layer-6" />
      <path
         inkscape:connector-curvature="0"
         class="fil0 str0"
         d="m 0.0200198,3.58804 c 0,-1.9733 1.59618,-3.56802 3.568,-3.56802 1.97182,0 3.56802,1.59746 3.56802,3.56802 0,1.97055 -1.59584,3.568 -3.56802,3.568 -1.97218,0 -3.568,-1.5947 -3.568,-3.568 z m 3.35951,0.208487 -2.93745,0 c 0.10116,1.56755 1.37224,2.83555 2.93745,2.93745 l 0,-2.93745 z m 0.416973,2.93745 c 1.58952,-0.126445 2.82732,-1.34113 2.93747,-2.93745 l -2.93747,0 0,2.93745 z m -0.416973,-3.35443 0,-2.93747 c -1.57,0.124884 -2.85139,1.34856 -2.93745,2.93747 l 2.93745,0 z m 0.416973,0 2.93747,0 c -0.069709,-1.57242 -1.38694,-2.82282 -2.93747,-2.93747 l 0,2.93747 z"
         id="path9052" />
    </g>
    <path
       style="fill:#ffff00;fill-opacity:1;fill-rule:nonzero;stroke:#000000;stroke-width:0.04504951;stroke-miterlimit:4;stroke-opacity:1;stroke-dasharray:none"
       d="M 1.0094394,7.1740889 C 1.1943509,5.1335199 2.4607354,3.1622195 4.324484,2.0137692 5.1556415,1.5016062 6.304888,1.1025883 7.2183911,1.0090061 l 0.3040841,-0.0311513 0,3.2723102 0,3.2723102 -3.2723029,0 -3.27230283,0 0.0315699,-0.3483863 0,0 z"
       id="path3942"
       inkscape:connector-curvature="0" />
    <path
       style="fill:#ffff00;fill-opacity:1;fill-rule:nonzero;stroke:#000000;stroke-width:0.04504951;stroke-miterlimit:4;stroke-opacity:1;stroke-dasharray:none"
       d="m 8.4685149,4.250165 0,-3.27231025 0.3040841,0.0309878 c 2.437914,0.2484377 4.78635,1.9911335 5.723973,4.2475689 0.286292,0.6889742 0.436728,1.2888741 0.520246,2.0746032 l 0.02035,0.1914604 -3.284327,0 -3.2843271,0 0,-3.2723102 z"
       id="path3944"
       inkscape:connector-curvature="0" />
    <path
       style="fill:#ffff00;fill-opacity:1;fill-rule:nonzero;stroke:#000000;stroke-width:0.04504951;stroke-miterlimit:4;stroke-opacity:1;stroke-dasharray:none"
       d="m 8.4685149,11.75017 0,-3.2816551 3.2804711,0 3.280471,0 -0.03653,0.3266089 C 14.63491,11.99613 12.13968,14.52373 8.8942657,14.972901 l -0.4257508,0.05893 0,-3.281656 z"
       id="path3946"
       inkscape:connector-curvature="0" />
    <path
       style="fill:#ffff00;fill-opacity:1;fill-rule:nonzero;stroke:#000000;stroke-width:0.04504951;stroke-miterlimit:4;stroke-opacity:1;stroke-dasharray:none"
       d="M 7.0719802,14.976619 C 4.2660335,14.584284 1.9826736,12.579711 1.198203,9.82 1.1094517,9.5077795 0.99029697,8.8202021 0.99029697,8.6202871 l 0,-0.1517722 3.26608913,0 3.2660891,0 0,3.2886141 c 0,1.808737 -0.00507,3.286525 -0.011262,3.283972 -0.00619,-0.0026 -0.203849,-0.03157 -0.4392327,-0.06448 z"
       id="path3948"
       inkscape:connector-curvature="0" />
  </g>
</svg>
