<?xml version="1.0" encoding="UTF-8" standalone="no"?>
<!-- Created with Inkscape (http://www.inkscape.org/) -->

<svg
   xmlns:dc="http://purl.org/dc/elements/1.1/"
   xmlns:cc="http://creativecommons.org/ns#"
   xmlns:rdf="http://www.w3.org/1999/02/22-rdf-syntax-ns#"
   xmlns:svg="http://www.w3.org/2000/svg"
   xmlns="http://www.w3.org/2000/svg"
   xmlns:sodipodi="http://sodipodi.sourceforge.net/DTD/sodipodi-0.dtd"
   xmlns:inkscape="http://www.inkscape.org/namespaces/inkscape"
   width="16"
   height="16"
   id="svg24489"
   version="1.1"
   inkscape:version="0.48.4 r9939"
   sodipodi:docname="Bog.svg">
  <defs
     id="defs24491">
    <clipPath
       clipPathUnits="userSpaceOnUse"
       id="clipPath4250">
      <path
         inkscape:connector-curvature="0"
         d="m 27.36029,542.40485 0,21.59961 32.40035,0 0,-21.59961 -32.40035,0 z"
         clip-rule="evenodd"
         id="path4252" />
    </clipPath>
    <clipPath
       clipPathUnits="userSpaceOnUse"
       id="clipPath5778">
      <path
         inkscape:connector-curvature="0"
         d="m 27.36029,506.40555 0,21.59958 32.40035,0 0,-21.59958 -32.40035,0 z"
         clip-rule="evenodd"
         id="path5780" />
    </clipPath>
    <clipPath
       clipPathUnits="userSpaceOnUse"
       id="clipPath6668">
      <path
         inkscape:connector-curvature="0"
         d="m 27.36029,470.40625 0,21.59958 32.40035,0 0,-21.59958 -32.40035,0 z"
         clip-rule="evenodd"
         id="path6670" />
    </clipPath>
    <clipPath
       clipPathUnits="userSpaceOnUse"
       id="clipPath8468">
      <path
         inkscape:connector-curvature="0"
         d="m 27.36029,434.40695 0,21.59958 32.40035,0 0,-21.59958 -32.40035,0 z"
         clip-rule="evenodd"
         id="path8470" />
    </clipPath>
    <clipPath
       clipPathUnits="userSpaceOnUse"
       id="clipPath8446">
      <path
         inkscape:connector-curvature="0"
         d="m 27.36029,434.40695 0,21.59958 32.40035,0 0,-21.59958 -32.40035,0 z"
         clip-rule="evenodd"
         id="path8448" />
    </clipPath>
  </defs>
  <sodipodi:namedview
     id="base"
     pagecolor="#ffffff"
     bordercolor="#666666"
     borderopacity="1.0"
     inkscape:pageopacity="0.0"
     inkscape:pageshadow="2"
     inkscape:zoom="15.839192"
     inkscape:cx="28.444478"
     inkscape:cy="11.278554"
     inkscape:document-units="px"
     inkscape:current-layer="layer1"
     showgrid="false"
     inkscape:window-width="1307"
     inkscape:window-height="744"
     inkscape:window-x="53"
     inkscape:window-y="24"
     inkscape:window-maximized="1" />
  <metadata
     id="metadata24494">
    <rdf:RDF>
      <cc:Work
         rdf:about="">
        <dc:format>image/svg+xml</dc:format>
        <dc:type
           rdf:resource="http://purl.org/dc/dcmitype/StillImage" />
        <dc:title></dc:title>
      </cc:Work>
    </rdf:RDF>
  </metadata>
  <g
     inkscape:label="Capa 1"
     inkscape:groupmode="layer"
     id="layer1"
     transform="translate(0,-1036.3622)">
    <path
       inkscape:connector-curvature="0"
       d="m 0.12575932,1052.2364 0,-15.7484"
       style="fill:none;stroke:#000000;stroke-width:0.25151885;stroke-linecap:butt;stroke-linejoin:miter;stroke-miterlimit:10;stroke-opacity:1;stroke-dasharray:none"
       id="path8452" />
    <path
       inkscape:connector-curvature="0"
       d="m 3.9849049,1052.2364 0,-15.7484"
       style="fill:none;stroke:#000000;stroke-width:0.25151885;stroke-linecap:butt;stroke-linejoin:miter;stroke-miterlimit:10;stroke-opacity:1;stroke-dasharray:none"
       id="path8454" />
    <path
       inkscape:connector-curvature="0"
       d="m 7.8440587,1052.2364 0,-15.7484"
       style="fill:none;stroke:#000000;stroke-width:0.25151885;stroke-linecap:butt;stroke-linejoin:miter;stroke-miterlimit:10;stroke-opacity:1;stroke-dasharray:none"
       id="path8456" />
    <path
       inkscape:connector-curvature="0"
       d="m 11.703003,1052.2364 0,-15.7484"
       style="fill:none;stroke:#000000;stroke-width:0.25138128;stroke-linecap:butt;stroke-linejoin:miter;stroke-miterlimit:10;stroke-opacity:1;stroke-dasharray:none"
       id="path8458" />
    <path
       inkscape:connector-curvature="0"
       d="m 0.12575745,1052.2364 15.57836155,0"
       style="fill:none;stroke:#000000;stroke-width:0.25151512;stroke-linecap:butt;stroke-linejoin:miter;stroke-miterlimit:10;stroke-opacity:1;stroke-dasharray:none"
       id="path8474" />
    <path
       inkscape:connector-curvature="0"
       d="m 0.12575745,1048.3353 15.57836155,0"
       style="fill:none;stroke:#000000;stroke-width:0.25151512;stroke-linecap:butt;stroke-linejoin:miter;stroke-miterlimit:10;stroke-opacity:1;stroke-dasharray:none"
       id="path8476" />
    <path
       inkscape:connector-curvature="0"
       d="m 0.12575745,1044.4341 15.57836155,0"
       style="fill:none;stroke:#000000;stroke-width:0.25151512;stroke-linecap:butt;stroke-linejoin:miter;stroke-miterlimit:10;stroke-opacity:1;stroke-dasharray:none"
       id="path8478" />
    <path
       inkscape:connector-curvature="0"
       d="m 0.12575745,1040.5329 15.57836155,0"
       style="fill:none;stroke:#000000;stroke-width:0.25151512;stroke-linecap:butt;stroke-linejoin:miter;stroke-miterlimit:10;stroke-opacity:1;stroke-dasharray:none"
       id="path8480" />
  </g>
</svg>
