<?xml version="1.0" encoding="UTF-8" standalone="no"?>
<!-- Created with Inkscape (http://www.inkscape.org/) -->

<svg
   xmlns:dc="http://purl.org/dc/elements/1.1/"
   xmlns:cc="http://creativecommons.org/ns#"
   xmlns:rdf="http://www.w3.org/1999/02/22-rdf-syntax-ns#"
   xmlns:svg="http://www.w3.org/2000/svg"
   xmlns="http://www.w3.org/2000/svg"
   xmlns:sodipodi="http://sodipodi.sourceforge.net/DTD/sodipodi-0.dtd"
   xmlns:inkscape="http://www.inkscape.org/namespaces/inkscape"
   width="16px"
   height="16px"
   id="svg3519"
   version="1.1"
   inkscape:version="0.48.3.1 r9886"
   sodipodi:docname="Diamond 1.svg">
  <defs
     id="defs3521" />
  <sodipodi:namedview
     id="base"
     pagecolor="#ffffff"
     bordercolor="#666666"
     borderopacity="1.0"
     inkscape:pageopacity="0.0"
     inkscape:pageshadow="2"
     inkscape:zoom="22.197802"
     inkscape:cx="1.8282178"
     inkscape:cy="8"
     inkscape:current-layer="layer1"
     showgrid="true"
     inkscape:grid-bbox="true"
     inkscape:document-units="px"
     inkscape:window-width="1317"
     inkscape:window-height="744"
     inkscape:window-x="49"
     inkscape:window-y="24"
     inkscape:window-maximized="1" />
  <metadata
     id="metadata3524">
    <rdf:RDF>
      <cc:Work
         rdf:about="">
        <dc:format>image/svg+xml</dc:format>
        <dc:type
           rdf:resource="http://purl.org/dc/dcmitype/StillImage" />
        <dc:title></dc:title>
      </cc:Work>
    </rdf:RDF>
  </metadata>
  <g
     id="layer1"
     inkscape:label="Layer 1"
     inkscape:groupmode="layer">
    <path
       sodipodi:type="star"
       style="fill:#000000;fill-opacity:1;fill-rule:nonzero;stroke:#000000;stroke-width:0.86000001;stroke-miterlimit:4;stroke-opacity:1;stroke-dasharray:none"
       id="path4135"
       sodipodi:sides="4"
       sodipodi:cx="427.32495"
       sodipodi:cy="141.14908"
       sodipodi:r1="14.735343"
       sodipodi:r2="10.419461"
       sodipodi:arg1="1.5707963"
       sodipodi:arg2="2.3561945"
       inkscape:flatsided="true"
       inkscape:rounded="0"
       inkscape:randomized="0"
       d="m 427.32495,155.88442 -14.73534,-14.73534 14.73534,-14.73534 14.73534,14.73534 z"
       transform="matrix(0.27523258,0,0,0.53174859,-109.61375,-67.055823)" />
    <path
       style="fill:#ffff00;fill-opacity:1;fill-rule:nonzero;stroke:#000000;stroke-width:0.04504951;stroke-miterlimit:4;stroke-opacity:1;stroke-dasharray:none"
       d="M 5.9030818,12.084075 C 4.7537565,9.8631313 3.8135092,8.024497 3.8136435,7.9982205 3.813814,7.9648483 7.3543827,1.0826304 7.9694646,-0.0799354 c 0.017,-0.03213102 0.9242469,1.6727091 2.0976844,3.9418317 1.13725,2.1991478 2.0856,4.0288586 2.107444,4.0660245 0.02861,0.048678 -0.546338,1.199635 -2.056045,4.1158912 -1.1526672,2.226574 -2.1025147,4.055072 -2.1107714,4.063329 -0.00826,0.0083 -0.9553694,-1.802123 -2.1046948,-4.023066 l 0,0 z"
       id="path4374"
       inkscape:connector-curvature="0" />
  </g>
</svg>
