<?xml version="1.0" encoding="UTF-8" standalone="no"?>
<!-- Created with Inkscape (http://www.inkscape.org/) -->

<svg
   xmlns:dc="http://purl.org/dc/elements/1.1/"
   xmlns:cc="http://creativecommons.org/ns#"
   xmlns:rdf="http://www.w3.org/1999/02/22-rdf-syntax-ns#"
   xmlns:svg="http://www.w3.org/2000/svg"
   xmlns="http://www.w3.org/2000/svg"
   xmlns:sodipodi="http://sodipodi.sourceforge.net/DTD/sodipodi-0.dtd"
   xmlns:inkscape="http://www.inkscape.org/namespaces/inkscape"
   width="16px"
   height="16px"
   id="svg4922"
   version="1.1"
   inkscape:version="0.48.3.1 r9886"
   sodipodi:docname="Nuevo documento 107">
  <defs
     id="defs4924" />
  <sodipodi:namedview
     id="base"
     pagecolor="#ffffff"
     bordercolor="#666666"
     borderopacity="1.0"
     inkscape:pageopacity="0.0"
     inkscape:pageshadow="2"
     inkscape:zoom="22.197802"
     inkscape:cx="1.8282178"
     inkscape:cy="8"
     inkscape:current-layer="layer1"
     showgrid="true"
     inkscape:grid-bbox="true"
     inkscape:document-units="px"
     inkscape:window-width="1317"
     inkscape:window-height="744"
     inkscape:window-x="49"
     inkscape:window-y="24"
     inkscape:window-maximized="1" />
  <metadata
     id="metadata4927">
    <rdf:RDF>
      <cc:Work
         rdf:about="">
        <dc:format>image/svg+xml</dc:format>
        <dc:type
           rdf:resource="http://purl.org/dc/dcmitype/StillImage" />
        <dc:title></dc:title>
      </cc:Work>
    </rdf:RDF>
  </metadata>
  <g
     id="layer1"
     inkscape:label="Layer 1"
     inkscape:groupmode="layer">
    <g
       transform="matrix(0.12921879,0,0,0.12921044,-0.14937682,0.10453146)"
       id="g6738">
      <path
         inkscape:connector-curvature="0"
         style="fill:#ffffff"
         d="m 15.914,1.949 c -6.758,0 -12.258,5.492 -12.258,12.25 v 94.023 c 0,6.781 5.5,12.273 12.258,12.273 h 94.023 c 6.75,0 12.25,-5.492 12.25,-12.273 V 14.199 c 0,-6.758 -5.5,-12.25 -12.25,-12.25 H 15.914 z"
         id="path6740" />
      <path
         inkscape:connector-curvature="0"
         style="fill:#0088cf"
         d="m 110.18,123.02 c 8.164,0 14.797,-6.617 14.797,-14.797 V 13.988 c 0,-8.156 -6.633,-14.797 -14.797,-14.797 H 15.953 c -8.18,0 -14.797,6.641 -14.797,14.797 v 94.234 c 0,8.18 6.617,14.797 14.797,14.797 h 94.227 z"
         id="path6742" />
      <path
         inkscape:connector-curvature="0"
         style="fill:#0088cf"
         d="M 15.953,1.699 C 9.172,1.699 3.656,7.207 3.656,13.988 v 94.234 c 0,6.781 5.516,12.297 12.297,12.297 h 94.227 c 6.773,0 12.289,-5.516 12.289,-12.297 V 13.988 c 0,-6.781 -5.516,-12.289 -12.289,-12.289 H 15.953 z"
         id="path6744" />
      <polygon
         style="fill:#ffffff"
         points="29.992,99.684 46.594,99.684 46.594,65.379 79.758,65.379 79.758,99.684 96.375,99.684 96.375,22.559 79.758,22.559 79.758,48.801 46.594,48.801 46.594,22.559 29.992,22.559 "
         id="polygon6746" />
    </g>
  </g>
</svg>
