<?xml version="1.0" encoding="UTF-8" standalone="no"?>
<!-- Created with Inkscape (http://www.inkscape.org/) -->

<svg
   xmlns:dc="http://purl.org/dc/elements/1.1/"
   xmlns:cc="http://creativecommons.org/ns#"
   xmlns:rdf="http://www.w3.org/1999/02/22-rdf-syntax-ns#"
   xmlns:svg="http://www.w3.org/2000/svg"
   xmlns="http://www.w3.org/2000/svg"
   xmlns:sodipodi="http://sodipodi.sourceforge.net/DTD/sodipodi-0.dtd"
   xmlns:inkscape="http://www.inkscape.org/namespaces/inkscape"
   width="16px"
   height="16px"
   id="svg4173"
   version="1.1"
   inkscape:version="0.48.3.1 r9886"
   sodipodi:docname="Identify.svg">
  <defs
     id="defs4175" />
  <sodipodi:namedview
     id="base"
     pagecolor="#ffffff"
     bordercolor="#666666"
     borderopacity="1.0"
     inkscape:pageopacity="0.0"
     inkscape:pageshadow="2"
     inkscape:zoom="22.197802"
     inkscape:cx="1.8282178"
     inkscape:cy="8"
     inkscape:current-layer="layer1"
     showgrid="true"
     inkscape:grid-bbox="true"
     inkscape:document-units="px"
     inkscape:window-width="1317"
     inkscape:window-height="744"
     inkscape:window-x="49"
     inkscape:window-y="24"
     inkscape:window-maximized="1" />
  <metadata
     id="metadata4178">
    <rdf:RDF>
      <cc:Work
         rdf:about="">
        <dc:format>image/svg+xml</dc:format>
        <dc:type
           rdf:resource="http://purl.org/dc/dcmitype/StillImage" />
        <dc:title></dc:title>
      </cc:Work>
    </rdf:RDF>
  </metadata>
  <g
     id="layer1"
     inkscape:label="Layer 1"
     inkscape:groupmode="layer">
    <path
       sodipodi:type="arc"
       style="fill:#000000;stroke:none"
       id="path3980-6-1"
       sodipodi:cx="751.61926"
       sodipodi:cy="191.27083"
       sodipodi:rx="63.197376"
       sodipodi:ry="63.197376"
       d="m 814.81664,191.27083 a 63.197376,63.197376 0 1 1 -126.39475,0 63.197376,63.197376 0 1 1 126.39475,0 z"
       transform="matrix(0.12658753,0,0,0.12658753,-87.145626,-16.212502)"
       inkscape:export-filename="C:\Users\Toushirou\Downloads\g3846.png"
       inkscape:export-xdpi="90"
       inkscape:export-ydpi="90" />
    <g
       id="g3121-0"
       transform="matrix(0.29410691,0,0,0.29410691,-5.9535022,-158.9922)"
       style="fill:#ffffff;fill-opacity:1">
      <path
         transform="matrix(0.50196079,0,0,0.50196079,-329.77388,468.2597)"
         d="m 761.79047,167.7709 c 0,6.58741 -5.34015,11.92756 -11.92755,11.92756 -6.58741,0 -11.92756,-5.34015 -11.92756,-11.92756 0,-6.5874 5.34015,-11.92755 11.92756,-11.92755 6.5874,0 11.92755,5.34015 11.92755,11.92755 z"
         sodipodi:ry="11.927552"
         sodipodi:rx="11.927552"
         sodipodi:cy="167.7709"
         sodipodi:cx="749.86292"
         id="path3990-2"
         style="fill:#ffffff;fill-opacity:1;stroke:none"
         sodipodi:type="arc" />
      <g
         id="g3113-8"
         style="fill:#ffffff;fill-opacity:1">
        <g
           id="g3085-6"
           style="fill:#ffffff;fill-opacity:1">
          <rect
             ry="4.0664949"
             rx="4.0664949"
             y="560.89362"
             x="42.811901"
             height="28.027821"
             width="9.3426065"
             id="rect3992-0"
             style="fill:#ffffff;fill-opacity:1;stroke:none" />
          <path
             inkscape:connector-curvature="0"
             id="path3083-2"
             d="m 51.637342,563.84168 c -0.875185,-1.2599 -1.943463,-2.30013 -3.358488,-2.67928 -4.164716,-1.11594 -8.822444,2.74062 -10.393305,8.60316 -0.05288,0.19734 -0.07902,0.38498 -0.123489,0.5816 2.247299,-2.96029 5.909574,-4.46643 9.420992,-3.52555 1.221863,0.3274 2.269902,0.96949 3.184459,1.75914 l 1.261743,-4.70888 c 0.0028,-0.0103 0.0052,-0.0198 0.0081,-0.0301 z"
             style="fill:#ffffff;fill-opacity:1;stroke:none" />
        </g>
        <g
           transform="matrix(-1,0,0,-1,94.887279,1149.9951)"
           id="g3085-1-4"
           style="fill:#ffffff;fill-opacity:1">
          <rect
             ry="4.0664949"
             rx="4.0664949"
             y="560.89362"
             x="42.811901"
             height="28.027821"
             width="9.3426065"
             id="rect3992-7-8"
             style="fill:#ffffff;fill-opacity:1;stroke:none" />
          <path
             inkscape:connector-curvature="0"
             id="path3083-4-6"
             d="m 51.637342,563.84168 c -0.875185,-1.2599 -1.943463,-2.30013 -3.358488,-2.67928 -4.164716,-1.11594 -8.822444,2.74062 -10.393305,8.60316 -0.05288,0.19734 -0.07902,0.38498 -0.123489,0.5816 2.247299,-2.96029 5.909574,-4.46643 9.420992,-3.52555 1.221863,0.3274 2.269902,0.96949 3.184459,1.75914 l 1.261743,-4.70888 c 0.0028,-0.0103 0.0052,-0.0198 0.0081,-0.0301 z"
             style="fill:#ffffff;fill-opacity:1;stroke:none" />
        </g>
      </g>
    </g>
    <path
       style="fill:#ffff00;fill-opacity:1;fill-rule:nonzero;stroke:#000000;stroke-width:0.04504951;stroke-miterlimit:4;stroke-opacity:1;stroke-dasharray:none"
       d="M 7.3873268,15.94375 C 4.368082,15.723842 1.6450534,13.693365 0.56148594,10.853935 -0.01646931,9.3394349 -0.11849429,7.6383074 0.27387205,6.0583663 0.97356629,3.240908 3.240908,0.97356626 6.0583664,0.27387202 6.7203368,0.1094767 7.2741016,0.0442517 8.0062723,0.04443851 c 0.7691572,1.9642e-4 1.2991818,0.0664494 2.0096917,0.25121173 2.571738,0.66875925 4.668357,2.61922216 5.519228,5.13447956 0.981584,2.9016603 0.251689,6.0352002 -1.909086,8.1959762 -1.653699,1.653698 -3.8995792,2.48802 -6.2387792,2.317644 z m 1.2323589,-1.735216 c 0.9493755,-0.244777 1.8042133,-1.191056 2.1738233,-2.406356 0.03391,-0.111497 0.06187,-0.23064 0.06214,-0.264762 2.71e-4,-0.03412 -0.148883,0.07985 -0.331447,0.253267 -0.227708,0.2163 -0.450498,0.374656 -0.7095297,0.504321 L 9.4370793,12.48402 9.4145545,9.676639 C 9.3926735,6.949473 9.3893421,6.8634505 9.2979596,6.6660292 9.0858093,6.2077009 8.7133734,5.9852834 8.1081188,5.9554606 7.0442144,5.9030392 6.0730552,6.5603057 5.4790563,7.7347715 5.3527852,7.9844363 5.1348515,8.6139878 5.1348515,8.7290843 c 0,0.038823 0.1154524,-0.049484 0.2646235,-0.2024051 C 5.5450178,8.377477 5.7528086,8.1947423 5.8612324,8.120602 6.051235,7.9906779 6.4580879,7.7927723 6.5351825,7.7927723 c 0.020566,0 0.043329,1.2518131 0.050585,2.7818067 0.01286,2.711602 0.015567,2.786936 0.1072628,2.985035 0.1228023,0.265302 0.3449648,0.48331 0.6257782,0.614076 0.2779586,0.129437 0.8722548,0.145355 1.300877,0.03484 l 0,0 z M 8.4362856,5.1370174 C 8.7680608,5.0098238 9.1739469,4.6394857 9.3389051,4.313452 9.5978024,3.801751 9.5899561,3.1620786 9.3185369,2.6528436 8.6366924,1.3735728 6.7752626,1.4289905 6.1525973,2.7470986 5.9760848,3.1207544 5.9379887,3.6445137 6.0602165,4.0171905 6.2557868,4.6134904 6.7428805,5.0761569 7.3303153,5.223594 7.600988,5.2915291 8.1441666,5.2490087 8.4362856,5.1370174 z"
       id="path3411"
       inkscape:connector-curvature="0" />
  </g>
</svg>
