<?xml version="1.0" encoding="UTF-8" standalone="no"?>
<!-- Created with Inkscape (http://www.inkscape.org/) -->

<svg
   xmlns:dc="http://purl.org/dc/elements/1.1/"
   xmlns:cc="http://creativecommons.org/ns#"
   xmlns:rdf="http://www.w3.org/1999/02/22-rdf-syntax-ns#"
   xmlns:svg="http://www.w3.org/2000/svg"
   xmlns="http://www.w3.org/2000/svg"
   xmlns:sodipodi="http://sodipodi.sourceforge.net/DTD/sodipodi-0.dtd"
   xmlns:inkscape="http://www.inkscape.org/namespaces/inkscape"
   width="16px"
   height="16px"
   id="svg4988"
   version="1.1"
   inkscape:version="0.48.3.1 r9886"
   sodipodi:docname="Interstate HWY 1.svg">
  <defs
     id="defs4990" />
  <sodipodi:namedview
     id="base"
     pagecolor="#ffffff"
     bordercolor="#666666"
     borderopacity="1.0"
     inkscape:pageopacity="0.0"
     inkscape:pageshadow="2"
     inkscape:zoom="22.197802"
     inkscape:cx="18.591489"
     inkscape:cy="11.918317"
     inkscape:current-layer="layer1"
     showgrid="true"
     inkscape:grid-bbox="true"
     inkscape:document-units="px"
     inkscape:window-width="1317"
     inkscape:window-height="744"
     inkscape:window-x="49"
     inkscape:window-y="24"
     inkscape:window-maximized="1" />
  <metadata
     id="metadata4993">
    <rdf:RDF>
      <cc:Work
         rdf:about="">
        <dc:format>image/svg+xml</dc:format>
        <dc:type
           rdf:resource="http://purl.org/dc/dcmitype/StillImage" />
        <dc:title></dc:title>
      </cc:Work>
    </rdf:RDF>
  </metadata>
  <g
     id="layer1"
     inkscape:label="Layer 1"
     inkscape:groupmode="layer">
    <path
       inkscape:connector-curvature="0"
       style="fill:#ffffff;fill-opacity:1;fill-rule:evenodd;stroke:#000000;stroke-width:0.06268977pt;stroke-linecap:butt;stroke-linejoin:miter;stroke-opacity:1"
       id="path908"
       d="m 8.0006932,0.05617788 c -1.100613,0.71531096 -2.439497,1.13827962 -3.885602,1.13827962 -1.008015,0 -1.960651,-0.20896893 -2.8205286,-0.57478911 C 0.5085387,2.0933062 0.0625,3.7495678 0.0625,5.5044893 0.0625,10.312232 3.3787922,14.396652 8.0027272,15.9375 12.626652,14.396652 15.94092,10.312232 15.94091,5.5044893 c 0,-1.7549215 -0.446378,-3.4111831 -1.232062,-4.88482091 -0.860008,0.36595864 -1.814339,0.57478911 -2.822564,0.57478911 -1.446104,0 -2.7849878,-0.42295943 -3.8855908,-1.13827962 z" />
    <g
       id="g3418"
       transform="matrix(0.02747966,0,0,0.02542994,-2.5072793,-2.611974)">
      <path
         inkscape:connector-curvature="0"
         transform="translate(-63.93662,-316.227)"
         style="fill:#007fff;fill-opacity:1;fill-rule:evenodd;stroke:none"
         id="path1540"
         d="m 720.375,594.4375 -546.28125,0 c -1.89326,15.80195 -2.875,31.90764 -2.875,48.21875 0,178.1432 115.27353,329.46877 276.03125,386.56255 160.75775,-57.09374 276.00006,-208.41935 276,-386.56255 0,-16.31111 -0.9808,-32.4168 -2.875,-48.21875 z" />
      <path
         inkscape:connector-curvature="0"
         transform="translate(-63.93662,-316.227)"
         style="fill:#ff0000;fill-opacity:1;fill-rule:evenodd;stroke:none"
         id="path1536"
         d="m 447.1875,440.78125 c -38.26419,26.50485 -84.8177,42.15626 -135.09375,42.15625 -35.04504,10e-6 -68.16783,-7.72644 -98.0625,-21.28125 -17.95111,35.86827 -30.66991,74.67395 -37.375,115.5 l 541.15625,0 c -6.70771,-40.82605 -19.46303,-79.63173 -37.40625,-115.5 -29.89941,13.55999 -63.07285,21.28125 -98.125,21.28125 -50.2761,10e-6 -96.8296,-15.65137 -135.09375,-42.15625 z" />
    </g>
    <path
       style="fill:#ffff00;fill-opacity:1;fill-rule:nonzero;stroke:#000000;stroke-width:0.04504951;stroke-miterlimit:4;stroke-opacity:1;stroke-dasharray:none"
       d="M 0.6348145,3.9532919 C 0.6349484,3.8240286 0.86588121,2.9621329 1.018049,2.5229701 1.1081936,2.2628092 1.2813109,1.8406302 1.4027542,1.5847945 1.6450816,1.0743013 1.6124801,1.0939258 1.9732003,1.2414138 2.2278706,1.3455411 2.9428202,1.5215702 3.3377265,1.5773765 3.8672935,1.6522124 4.8959354,1.6434954 5.4105394,1.5598109 6.21036,1.4297447 7.0402534,1.1468944 7.6783517,0.78687864 L 8.0320958,0.58729584 8.3344275,0.76690758 C 8.9158346,1.1123154 9.838298,1.4302176 10.635211,1.5598109 c 0.513163,0.08345 1.541432,0.092441 2.072813,0.018124 0.428213,-0.059888 1.114469,-0.2324644 1.449441,-0.364498 0.121399,-0.047851 0.229856,-0.087002 0.241017,-0.087002 0.03285,0 0.325413,0.6000236 0.477286,0.9788817 0.234638,0.5853234 0.535226,1.6184096 0.535226,1.8395079 0,0.056075 -0.992636,0.064779 -7.388119,0.064779 -5.8804932,0 -7.38810693,-0.011491 -7.3880605,-0.056312 z"
       id="path3543"
       inkscape:connector-curvature="0" />
    <path
       style="fill:#ffff00;fill-opacity:1;fill-rule:nonzero;stroke:#000000;stroke-width:0.04504951;stroke-miterlimit:4;stroke-opacity:1;stroke-dasharray:none"
       d="M 7.5273305,15.313324 C 5.8020579,14.660652 4.0747286,13.470963 2.9627777,12.169513 1.6170215,10.594413 0.83756517,8.9196706 0.55930193,7.0053959 0.48286831,6.4795811 0.4540092,4.9740825 0.51461269,4.674084 l 0.0341271,-0.1689356 7.47531821,0 7.475319,0 0.03387,0.1238861 c 0.05598,0.204761 0.03668,1.8508424 -0.0268,2.2862624 -0.437975,3.0040506 -2.086324,5.5221841 -4.758076,7.2687701 -0.719726,0.470502 -2.0235984,1.099522 -2.6579207,1.282247 -0.0519,0.01495 -0.2906427,-0.04991 -0.5631188,-0.15299 l 0,0 z"
       id="path3545"
       inkscape:connector-curvature="0" />
  </g>
</svg>
