<?xml version="1.0" encoding="UTF-8" standalone="no"?>
<!-- Created with Inkscape (http://www.inkscape.org/) -->

<svg
   xmlns:dc="http://purl.org/dc/elements/1.1/"
   xmlns:cc="http://creativecommons.org/ns#"
   xmlns:rdf="http://www.w3.org/1999/02/22-rdf-syntax-ns#"
   xmlns:svg="http://www.w3.org/2000/svg"
   xmlns="http://www.w3.org/2000/svg"
   xmlns:sodipodi="http://sodipodi.sourceforge.net/DTD/sodipodi-0.dtd"
   xmlns:inkscape="http://www.inkscape.org/namespaces/inkscape"
   width="16px"
   height="16px"
   id="svg3113"
   version="1.1"
   inkscape:version="0.48.3.1 r9886"
   sodipodi:docname="Octagon 3.svg">
  <defs
     id="defs3115" />
  <sodipodi:namedview
     id="base"
     pagecolor="#ffffff"
     bordercolor="#666666"
     borderopacity="1.0"
     inkscape:pageopacity="0.0"
     inkscape:pageshadow="2"
     inkscape:zoom="22.197802"
     inkscape:cx="1.8282178"
     inkscape:cy="8"
     inkscape:current-layer="layer1"
     showgrid="true"
     inkscape:grid-bbox="true"
     inkscape:document-units="px"
     inkscape:window-width="1317"
     inkscape:window-height="744"
     inkscape:window-x="49"
     inkscape:window-y="24"
     inkscape:window-maximized="1" />
  <metadata
     id="metadata3118">
    <rdf:RDF>
      <cc:Work
         rdf:about="">
        <dc:format>image/svg+xml</dc:format>
        <dc:type
           rdf:resource="http://purl.org/dc/dcmitype/StillImage" />
        <dc:title></dc:title>
      </cc:Work>
    </rdf:RDF>
  </metadata>
  <g
     id="layer1"
     inkscape:label="Layer 1"
     inkscape:groupmode="layer">
    <path
       sodipodi:type="star"
       style="fill:#00ff00;fill-opacity:1;stroke:#000000;stroke-opacity:1"
       id="path3072-0-8"
       sodipodi:sides="8"
       sodipodi:cx="425.77386"
       sodipodi:cy="-22.490788"
       sodipodi:r1="18.105267"
       sodipodi:r2="9.0526323"
       sodipodi:arg1="0.7551044"
       sodipodi:arg2="1.1478035"
       inkscape:flatsided="true"
       inkscape:rounded="0"
       inkscape:randomized="0"
       d="m 438.95812,-10.082077 -12.63586,5.688249 -12.95711,-4.9127045 -5.68824,-12.6358625 4.9127,-12.957103 12.63586,-5.688249 12.95711,4.912704 5.68824,12.635863 z"
       transform="matrix(0.43017785,0,0,0.43017785,-175.15849,17.675039)" />
    <rect
       style="fill:#000000;fill-opacity:1;fill-rule:nonzero;stroke:#000000;stroke-width:0.88320708;stroke-miterlimit:4;stroke-opacity:1;stroke-dasharray:none"
       id="rect3954-6"
       width="3.9823625"
       height="3.9823625"
       x="6.0088186"
       y="6.0088186"
       rx="3.080955" />
    <path
       style="fill:#ffff00;fill-opacity:1;fill-rule:nonzero;stroke:#000000;stroke-width:0.04504951;stroke-miterlimit:4;stroke-opacity:1;stroke-dasharray:none"
       d="M 5.5628218,14.517378 C 4.1009653,13.962938 2.8812275,13.485035 2.8522932,13.455371 2.8014249,13.403219 0.55135396,8.4363184 0.50648573,8.2771373 0.4831239,8.1942557 2.451469,2.9418936 2.5388788,2.8538688 2.5986403,2.7936868 7.7030337,0.49475241 7.776896,0.49475241 c 0.087749,0 5.306664,1.98722549 5.363396,2.04223989 0.07745,0.075103 2.371559,5.1744336 2.364497,5.25578 -0.0032,0.037166 -0.459592,1.2601756 -1.014144,2.7177997 l -1.008276,2.650225 -2.495665,1.125206 C 9.6140887,14.904866 8.4302228,15.436912 8.3558911,15.468329 8.2284479,15.522193 8.0692024,15.467968 5.5628218,14.517378 z M 8.5283415,10.383954 C 9.4512676,10.188403 10.189649,9.4430947 10.389266,8.5055721 10.65405,7.2619814 9.9404313,6.060103 8.6937624,5.6500007 8.3239443,5.5283463 7.636364,5.5377202 7.243599,5.6697711 6.5092304,5.9166721 5.9380526,6.484454 5.6707658,7.2332534 5.5419121,7.5942351 5.5312011,8.3352048 5.6496538,8.6937624 5.9599701,9.6330923 6.6239701,10.210899 7.635099,10.421478 c 0.1978034,0.04119 0.6018258,0.02422 0.8932425,-0.03752 l 0,0 z"
       id="path3822"
       inkscape:connector-curvature="0" />
  </g>
</svg>
