<?xml version="1.0" encoding="UTF-8" standalone="no"?>
<!-- Created with Inkscape (http://www.inkscape.org/) -->

<svg
   xmlns:dc="http://purl.org/dc/elements/1.1/"
   xmlns:cc="http://creativecommons.org/ns#"
   xmlns:rdf="http://www.w3.org/1999/02/22-rdf-syntax-ns#"
   xmlns:svg="http://www.w3.org/2000/svg"
   xmlns="http://www.w3.org/2000/svg"
   xmlns:sodipodi="http://sodipodi.sourceforge.net/DTD/sodipodi-0.dtd"
   xmlns:inkscape="http://www.inkscape.org/namespaces/inkscape"
   width="16px"
   height="16px"
   id="svg9378"
   version="1.1"
   inkscape:version="0.48.3.1 r9886"
   sodipodi:docname="Pentagon 1.svg">
  <defs
     id="defs9380" />
  <sodipodi:namedview
     id="base"
     pagecolor="#ffffff"
     bordercolor="#666666"
     borderopacity="1.0"
     inkscape:pageopacity="0.0"
     inkscape:pageshadow="2"
     inkscape:zoom="11.098901"
     inkscape:cx="3.7553234"
     inkscape:cy="8.3206877"
     inkscape:current-layer="layer1"
     showgrid="true"
     inkscape:grid-bbox="true"
     inkscape:document-units="px"
     inkscape:window-width="1317"
     inkscape:window-height="744"
     inkscape:window-x="49"
     inkscape:window-y="24"
     inkscape:window-maximized="1" />
  <metadata
     id="metadata9383">
    <rdf:RDF>
      <cc:Work
         rdf:about="">
        <dc:format>image/svg+xml</dc:format>
        <dc:type
           rdf:resource="http://purl.org/dc/dcmitype/StillImage" />
        <dc:title></dc:title>
      </cc:Work>
    </rdf:RDF>
  </metadata>
  <g
     id="layer1"
     inkscape:label="Layer 1"
     inkscape:groupmode="layer">
    <path
       sodipodi:type="star"
       style="fill:#000000;fill-opacity:1"
       id="path3068"
       sodipodi:sides="5"
       sodipodi:cx="274.54272"
       sodipodi:cy="-16.286432"
       sodipodi:r1="11.633166"
       sodipodi:r2="9.4114285"
       sodipodi:arg1="0.92729522"
       sodipodi:arg2="1.5556137"
       inkscape:flatsided="true"
       inkscape:rounded="0"
       inkscape:randomized="0"
       d="m 281.52262,-6.9798992 -13.67403,0.207623 -4.42297,-12.9406178 10.94049,-8.205364 11.18456,7.869423 z"
       inkscape:transform-center-x="0.039467226"
       inkscape:transform-center-y="-0.76570938"
       transform="matrix(0.72316231,0,0,0.72316231,-190.49948,20.543443)" />
    <path
       style="fill:#ffff00;fill-opacity:1;fill-rule:nonzero;stroke:#000000;stroke-width:0.09009901;stroke-miterlimit:4;stroke-opacity:1;stroke-dasharray:none"
       d="M 3.1964386,15.508916 C 2.3440388,13.041047 0.09730357,6.3996968 0.09730357,6.3478721 0.09730357,6.3080269 1.810311,4.9920983 3.9039868,3.4235864 5.9976625,1.8550746 7.7548231,0.53745627 7.8087881,0.49554584 7.9161055,0.4122006 15.918029,6.0007738 15.898264,6.1452657 c -0.0063,0.045899 -0.650044,2.1566791 -1.43059,4.6906233 l -1.419174,4.60717 -3.8402025,0.0577 c -2.1121108,0.03173 -4.3218226,0.06682 -4.9104703,0.07798 -0.6512938,0.01234 -1.082451,-0.015 -1.1013886,-0.06982 z"
       id="path3880"
       inkscape:connector-curvature="0" />
  </g>
</svg>
