<?xml version="1.0" encoding="UTF-8" standalone="no"?>
<!-- Created with Inkscape (http://www.inkscape.org/) -->

<svg
   xmlns:dc="http://purl.org/dc/elements/1.1/"
   xmlns:cc="http://creativecommons.org/ns#"
   xmlns:rdf="http://www.w3.org/1999/02/22-rdf-syntax-ns#"
   xmlns:svg="http://www.w3.org/2000/svg"
   xmlns="http://www.w3.org/2000/svg"
   xmlns:sodipodi="http://sodipodi.sourceforge.net/DTD/sodipodi-0.dtd"
   xmlns:inkscape="http://www.inkscape.org/namespaces/inkscape"
   width="16px"
   height="16px"
   id="svg10122"
   version="1.1"
   inkscape:version="0.48.3.1 r9886"
   sodipodi:docname="Pentagon 3.svg">
  <defs
     id="defs10124" />
  <sodipodi:namedview
     id="base"
     pagecolor="#ffffff"
     bordercolor="#666666"
     borderopacity="1.0"
     inkscape:pageopacity="0.0"
     inkscape:pageshadow="2"
     inkscape:zoom="22.197802"
     inkscape:cx="7.3775512"
     inkscape:cy="4.5421113"
     inkscape:current-layer="layer1"
     showgrid="true"
     inkscape:grid-bbox="true"
     inkscape:document-units="px"
     inkscape:window-width="1317"
     inkscape:window-height="744"
     inkscape:window-x="49"
     inkscape:window-y="24"
     inkscape:window-maximized="1" />
  <metadata
     id="metadata10127">
    <rdf:RDF>
      <cc:Work
         rdf:about="">
        <dc:format>image/svg+xml</dc:format>
        <dc:type
           rdf:resource="http://purl.org/dc/dcmitype/StillImage" />
        <dc:title></dc:title>
      </cc:Work>
    </rdf:RDF>
  </metadata>
  <g
     id="layer1"
     inkscape:label="Layer 1"
     inkscape:groupmode="layer">
    <path
       sodipodi:type="star"
       style="fill:#00ff00;fill-opacity:1;stroke:#000000;stroke-opacity:1"
       id="path3068-4-7"
       sodipodi:sides="5"
       sodipodi:cx="274.54272"
       sodipodi:cy="-16.286432"
       sodipodi:r1="11.633166"
       sodipodi:r2="9.4114285"
       sodipodi:arg1="0.92729522"
       sodipodi:arg2="1.5556137"
       inkscape:flatsided="true"
       inkscape:rounded="0"
       inkscape:randomized="0"
       d="m 281.52262,-6.9798992 -13.67403,0.207623 -4.42297,-12.9406178 10.94049,-8.205364 11.18456,7.869423 z"
       inkscape:transform-center-x="-0.008737422"
       inkscape:transform-center-y="-0.76020481"
       transform="matrix(0.69169736,0.01293397,-0.01293397,0.69169736,-182.11987,16.786371)" />
    <rect
       style="fill:#000000;fill-opacity:1;fill-rule:nonzero;stroke:#000000;stroke-width:0.86836129;stroke-miterlimit:4;stroke-opacity:1;stroke-dasharray:none"
       id="rect3954-4"
       width="3.9154232"
       height="3.9154232"
       x="6.1648378"
       y="6.2299905"
       rx="3.0291674"
       transform="matrix(0.99982522,0.01869562,-0.01869562,0.99982522,0,0)" />
    <path
       style="fill:#ffff00;fill-opacity:1;fill-rule:nonzero;stroke:#000000;stroke-width:0.04504951;stroke-miterlimit:4;stroke-opacity:1;stroke-dasharray:none"
       d="M 3.4974032,15.158706 C 3.4858078,15.127734 2.8880025,13.267753 2.1689469,11.025413 1.4498914,8.7830743 0.84294429,6.8931989 0.82017557,6.8256904 0.779185,6.704155 0.81427614,6.6773528 4.388566,4.1001955 6.3739496,2.6686817 8.0141183,1.5022938 8.0333851,1.5082226 c 0.019267,0.00593 1.6449471,1.1891106 3.6126219,2.629293 l 3.57759,2.6185134 -0.442644,1.3350637 C 14.537498,8.8253776 13.910299,10.72865 13.387178,12.320587 l -0.95113,2.89443 -4.4587811,0 c -3.5257479,0 -4.4631928,-0.01178 -4.4798637,-0.05631 z M 8.6665554,10.644129 C 9.3827362,10.42859 9.999213,9.8321016 10.251256,9.1108095 10.294546,8.9869233 10.341352,8.6929753 10.355269,8.4575916 10.397755,7.7390318 10.167833,7.1361838 9.6578076,6.6288646 9.2224249,6.195792 8.7465435,5.9890234 8.0938383,5.9493253 7.002078,5.8829233 6.0297889,6.5445594 5.6783158,7.5930718 5.5498531,7.9763016 5.5399575,8.6208754 5.6564794,9.0154541 c 0.2570323,0.8703862 1.0157002,1.5486089 1.8967649,1.6956409 0.2822045,0.0471 0.8472478,0.01311 1.1133111,-0.06697 l 0,0 z"
       id="path3998"
       inkscape:connector-curvature="0" />
  </g>
</svg>
